info face="Pixeltype Regular" size=75 bold=0 italic=0 charset="" unicode=0 stretchH=100 smooth=1 aa=1 padding=0,0,0,0 spacing=0,0
common lineHeight=48 base=33 scaleW=512 scaleH=512 pages=1 packed=0
page id=0 file="pixeltype_Orange_Large.png"
chars count=95
char id=32   x=0     y=0     width=0     height=0     xoffset=0     yoffset=33    xadvance=9     page=0  chnl=0 
char id=113   x=0     y=0     width=25     height=40     xoffset=0     yoffset=9    xadvance=28     page=0  chnl=0 
char id=106   x=25     y=0     width=16     height=40     xoffset=0     yoffset=4    xadvance=19     page=0  chnl=0 
char id=121   x=41     y=0     width=25     height=35     xoffset=0     yoffset=9    xadvance=28     page=0  chnl=0 
char id=112   x=66     y=0     width=25     height=35     xoffset=0     yoffset=9    xadvance=28     page=0  chnl=0 
char id=103   x=91     y=0     width=25     height=35     xoffset=0     yoffset=9    xadvance=28     page=0  chnl=0 
char id=127   x=116     y=0     width=66     height=34     xoffset=0     yoffset=0    xadvance=0     page=0  chnl=0 
char id=38   x=182     y=0     width=25     height=34     xoffset=0     yoffset=0    xadvance=28     page=0  chnl=0 
char id=35   x=207     y=0     width=25     height=34     xoffset=0     yoffset=0    xadvance=28     page=0  chnl=0 
char id=37   x=232     y=0     width=25     height=34     xoffset=0     yoffset=0    xadvance=28     page=0  chnl=0 
char id=36   x=257     y=0     width=25     height=34     xoffset=0     yoffset=0    xadvance=28     page=0  chnl=0 
char id=92   x=282     y=0     width=25     height=34     xoffset=0     yoffset=0    xadvance=28     page=0  chnl=0 
char id=64   x=307     y=0     width=25     height=34     xoffset=0     yoffset=0    xadvance=28     page=0  chnl=0 
char id=47   x=332     y=0     width=25     height=34     xoffset=0     yoffset=0    xadvance=28     page=0  chnl=0 
char id=124   x=357     y=0     width=7     height=34     xoffset=9     yoffset=0    xadvance=19     page=0  chnl=0 
char id=125   x=364     y=0     width=16     height=34     xoffset=4     yoffset=0    xadvance=23     page=0  chnl=0 
char id=123   x=380     y=0     width=16     height=34     xoffset=4     yoffset=0    xadvance=23     page=0  chnl=0 
char id=93   x=396     y=0     width=16     height=34     xoffset=4     yoffset=0    xadvance=23     page=0  chnl=0 
char id=91   x=412     y=0     width=16     height=34     xoffset=4     yoffset=0    xadvance=23     page=0  chnl=0 
char id=41   x=428     y=0     width=16     height=34     xoffset=4     yoffset=0    xadvance=23     page=0  chnl=0 
char id=40   x=444     y=0     width=16     height=34     xoffset=4     yoffset=0    xadvance=23     page=0  chnl=0 
char id=63   x=460     y=0     width=25     height=34     xoffset=0     yoffset=0    xadvance=28     page=0  chnl=0 
char id=33   x=485     y=0     width=6     height=34     xoffset=0     yoffset=0    xadvance=9     page=0  chnl=0 
char id=48   x=0     y=40     width=25     height=34     xoffset=0     yoffset=0    xadvance=28     page=0  chnl=0 
char id=57   x=25     y=40     width=25     height=34     xoffset=0     yoffset=0    xadvance=28     page=0  chnl=0 
char id=56   x=50     y=40     width=25     height=34     xoffset=0     yoffset=0    xadvance=28     page=0  chnl=0 
char id=55   x=75     y=40     width=25     height=34     xoffset=0     yoffset=0    xadvance=28     page=0  chnl=0 
char id=54   x=100     y=40     width=25     height=34     xoffset=0     yoffset=0    xadvance=28     page=0  chnl=0 
char id=53   x=125     y=40     width=25     height=34     xoffset=0     yoffset=0    xadvance=28     page=0  chnl=0 
char id=52   x=150     y=40     width=25     height=34     xoffset=0     yoffset=0    xadvance=28     page=0  chnl=0 
char id=51   x=175     y=40     width=25     height=34     xoffset=0     yoffset=0    xadvance=28     page=0  chnl=0 
char id=50   x=200     y=40     width=25     height=34     xoffset=0     yoffset=0    xadvance=28     page=0  chnl=0 
char id=49   x=225     y=40     width=16     height=34     xoffset=0     yoffset=0    xadvance=19     page=0  chnl=0 
char id=116   x=241     y=40     width=16     height=34     xoffset=0     yoffset=0    xadvance=19     page=0  chnl=0 
char id=108   x=257     y=40     width=6     height=34     xoffset=0     yoffset=0    xadvance=9     page=0  chnl=0 
char id=107   x=263     y=40     width=20     height=34     xoffset=0     yoffset=0    xadvance=23     page=0  chnl=0 
char id=104   x=283     y=40     width=25     height=34     xoffset=0     yoffset=0    xadvance=28     page=0  chnl=0 
char id=102   x=308     y=40     width=20     height=34     xoffset=0     yoffset=0    xadvance=23     page=0  chnl=0 
char id=100   x=328     y=40     width=25     height=34     xoffset=0     yoffset=0    xadvance=28     page=0  chnl=0 
char id=98   x=353     y=40     width=25     height=34     xoffset=0     yoffset=0    xadvance=28     page=0  chnl=0 
char id=90   x=378     y=40     width=25     height=34     xoffset=0     yoffset=0    xadvance=28     page=0  chnl=0 
char id=89   x=403     y=40     width=25     height=34     xoffset=0     yoffset=0    xadvance=28     page=0  chnl=0 
char id=88   x=428     y=40     width=25     height=34     xoffset=0     yoffset=0    xadvance=28     page=0  chnl=0 
char id=87   x=453     y=40     width=25     height=34     xoffset=0     yoffset=0    xadvance=28     page=0  chnl=0 
char id=86   x=478     y=40     width=25     height=34     xoffset=0     yoffset=0    xadvance=28     page=0  chnl=0 
char id=85   x=0     y=74     width=25     height=34     xoffset=0     yoffset=0    xadvance=28     page=0  chnl=0 
char id=84   x=25     y=74     width=25     height=34     xoffset=0     yoffset=0    xadvance=28     page=0  chnl=0 
char id=83   x=50     y=74     width=25     height=34     xoffset=0     yoffset=0    xadvance=28     page=0  chnl=0 
char id=82   x=75     y=74     width=25     height=34     xoffset=0     yoffset=0    xadvance=28     page=0  chnl=0 
char id=81   x=100     y=74     width=25     height=34     xoffset=0     yoffset=0    xadvance=28     page=0  chnl=0 
char id=80   x=125     y=74     width=25     height=34     xoffset=0     yoffset=0    xadvance=28     page=0  chnl=0 
char id=79   x=150     y=74     width=25     height=34     xoffset=0     yoffset=0    xadvance=28     page=0  chnl=0 
char id=78   x=175     y=74     width=25     height=34     xoffset=0     yoffset=0    xadvance=28     page=0  chnl=0 
char id=77   x=200     y=74     width=25     height=34     xoffset=0     yoffset=0    xadvance=28     page=0  chnl=0 
char id=76   x=225     y=74     width=25     height=34     xoffset=0     yoffset=0    xadvance=28     page=0  chnl=0 
char id=75   x=250     y=74     width=25     height=34     xoffset=0     yoffset=0    xadvance=28     page=0  chnl=0 
char id=74   x=275     y=74     width=25     height=34     xoffset=0     yoffset=0    xadvance=28     page=0  chnl=0 
char id=73   x=300     y=74     width=16     height=34     xoffset=0     yoffset=0    xadvance=19     page=0  chnl=0 
char id=72   x=316     y=74     width=25     height=34     xoffset=0     yoffset=0    xadvance=28     page=0  chnl=0 
char id=71   x=341     y=74     width=25     height=34     xoffset=0     yoffset=0    xadvance=28     page=0  chnl=0 
char id=70   x=366     y=74     width=25     height=34     xoffset=0     yoffset=0    xadvance=28     page=0  chnl=0 
char id=69   x=391     y=74     width=25     height=34     xoffset=0     yoffset=0    xadvance=28     page=0  chnl=0 
char id=68   x=416     y=74     width=25     height=34     xoffset=0     yoffset=0    xadvance=28     page=0  chnl=0 
char id=67   x=441     y=74     width=25     height=34     xoffset=0     yoffset=0    xadvance=28     page=0  chnl=0 
char id=66   x=466     y=74     width=25     height=34     xoffset=0     yoffset=0    xadvance=28     page=0  chnl=0 
char id=65   x=0     y=108     width=25     height=34     xoffset=0     yoffset=0    xadvance=28     page=0  chnl=0 
char id=105   x=25     y=108     width=6     height=30     xoffset=0     yoffset=4    xadvance=9     page=0  chnl=0 
char id=42   x=31     y=108     width=25     height=25     xoffset=0     yoffset=0    xadvance=28     page=0  chnl=0 
char id=61   x=56     y=108     width=25     height=25     xoffset=0     yoffset=9    xadvance=28     page=0  chnl=0 
char id=43   x=81     y=108     width=25     height=25     xoffset=0     yoffset=9    xadvance=28     page=0  chnl=0 
char id=62   x=106     y=108     width=25     height=25     xoffset=0     yoffset=9    xadvance=28     page=0  chnl=0 
char id=60   x=131     y=108     width=25     height=25     xoffset=0     yoffset=9    xadvance=28     page=0  chnl=0 
char id=58   x=156     y=108     width=7     height=25     xoffset=9     yoffset=9    xadvance=19     page=0  chnl=0 
char id=59   x=163     y=108     width=12     height=25     xoffset=4     yoffset=9    xadvance=19     page=0  chnl=0 
char id=122   x=175     y=108     width=25     height=25     xoffset=0     yoffset=9    xadvance=28     page=0  chnl=0 
char id=120   x=200     y=108     width=25     height=25     xoffset=0     yoffset=9    xadvance=28     page=0  chnl=0 
char id=119   x=225     y=108     width=25     height=25     xoffset=0     yoffset=9    xadvance=28     page=0  chnl=0 
char id=118   x=250     y=108     width=25     height=25     xoffset=0     yoffset=9    xadvance=28     page=0  chnl=0 
char id=117   x=275     y=108     width=25     height=25     xoffset=0     yoffset=9    xadvance=28     page=0  chnl=0 
char id=115   x=300     y=108     width=25     height=25     xoffset=0     yoffset=9    xadvance=28     page=0  chnl=0 
char id=114   x=325     y=108     width=25     height=25     xoffset=0     yoffset=9    xadvance=28     page=0  chnl=0 
char id=111   x=350     y=108     width=25     height=25     xoffset=0     yoffset=9    xadvance=28     page=0  chnl=0 
char id=110   x=375     y=108     width=25     height=25     xoffset=0     yoffset=9    xadvance=28     page=0  chnl=0 
char id=109   x=400     y=108     width=25     height=25     xoffset=0     yoffset=9    xadvance=28     page=0  chnl=0 
char id=101   x=425     y=108     width=25     height=25     xoffset=0     yoffset=9    xadvance=28     page=0  chnl=0 
char id=99   x=450     y=108     width=25     height=25     xoffset=0     yoffset=9    xadvance=28     page=0  chnl=0 
char id=97   x=475     y=108     width=25     height=25     xoffset=0     yoffset=9    xadvance=28     page=0  chnl=0 
char id=126   x=0     y=142     width=25     height=16     xoffset=0     yoffset=9    xadvance=28     page=0  chnl=0 
char id=94   x=25     y=142     width=25     height=16     xoffset=0     yoffset=0    xadvance=28     page=0  chnl=0 
char id=44   x=50     y=142     width=6     height=11     xoffset=0     yoffset=28    xadvance=9     page=0  chnl=0 
char id=39   x=56     y=142     width=6     height=11     xoffset=0     yoffset=0    xadvance=9     page=0  chnl=0 
char id=96   x=62     y=142     width=11     height=11     xoffset=9     yoffset=0    xadvance=23     page=0  chnl=0 
char id=34   x=73     y=142     width=16     height=11     xoffset=0     yoffset=0    xadvance=19     page=0  chnl=0 
char id=95   x=89     y=142     width=25     height=6     xoffset=0     yoffset=28    xadvance=28     page=0  chnl=0 
char id=45   x=114     y=142     width=25     height=6     xoffset=0     yoffset=14    xadvance=28     page=0  chnl=0 
char id=46   x=139     y=142     width=6     height=6     xoffset=0     yoffset=28    xadvance=9     page=0  chnl=0 
